{
  "provisioners": [
    {
      "type": "shell",
      "execute_command": "echo 'vagrant' | {{.Vars}} sudo -S -E bash '{{.Path}}'",
      "script": "scripts/ansible.sh"
    },
    {
      "type": "shell",
      "execute_command": "echo 'vagrant' | {{.Vars}} sudo -S -E bash '{{.Path}}'",
      "script": "scripts/setup.sh"
    },
    {
      "type": "ansible-local",
      "playbook_file": "ansible/main.yml",
      "role_paths": [
        "./.imported_roles/geerlingguy.packer-debian",
        "./.imported_roles/geerlingguy.nfs"
      ]
    },
    {
      "type": "shell",
      "execute_command": "echo 'vagrant' | {{.Vars}} sudo -S -E bash '{{.Path}}'",
      "script": "scripts/cleanup.sh"
    }
  ],
  "builders": [
    {
      "type": "virtualbox-iso",
      "boot_command": [
        "<enter><wait><f6><esc><bs><bs><bs><bs><bs><bs><bs><bs><bs><bs><bs><bs><bs><bs><bs><bs><bs>",
        "<bs><bs><bs><bs><bs><bs><bs><bs><bs><bs><bs><bs><bs><bs><bs><bs><bs><bs><bs><bs><bs><bs>",
        "<bs><bs><bs><bs><bs><bs><bs><bs><bs><bs><bs><bs><bs><bs><bs><bs><bs><bs><bs><bs><bs><bs>",
        "<bs><bs><bs><bs><bs><bs><bs><bs><bs><bs><bs><bs><bs><bs><bs><bs><bs><bs><bs><bs><bs><bs>",
        "/install/vmlinuz<wait>",
        " auto<wait>",
        " console-setup/ask_detect=false<wait>",
        " console-setup/layoutcode=us<wait>",
        " console-setup/modelcode=pc105<wait>",
        " debconf/frontend=noninteractive<wait>",
        " debian-installer=en_AU<wait>",
        " fb=false<wait>",
        " initrd=/install/initrd.gz<wait>",
        " kbd-chooser/method=us<wait>",
        " keyboard-configuration/layout=USA<wait>",
        " keyboard-configuration/variant=USA<wait>",
        " locale=en_AU<wait>",
        " netcfg/get_domain=vm<wait>",
        " netcfg/get_hostname=vagrant<wait>",
        " grub-installer/bootdev=/dev/sda<wait>",
        " noapic<wait>",
        " preseed/url=http://{{ .HTTPIP }}:{{ .HTTPPort }}/preseed.cfg",
        " -- <wait>",
        "<enter><wait>"
      ],
      "boot_wait": "10s",
      "disk_size": 81920,
      "guest_os_type": "Ubuntu_64",
      "headless": true,
      "http_directory": "http",
      "iso_urls": [
        "iso/ubuntu-16.04.1-server-amd64.iso",
        "http://uberbrick:8888/userContent/ubuntu-16.-04.1-server-amd.iso",
        "http://releases.ubuntu.com/16.04/ubuntu-16.04.1-server-amd64.iso"
      ],
      "iso_checksum_type": "sha256",
      "iso_checksum": "29a8b9009509b39d542ecb229787cdf48f05e739a932289de9e9858d7c487c80",
      "ssh_username": "vagrant",
      "ssh_password": "vagrant",
      "ssh_port": 22,
      "ssh_wait_timeout": "10000s",
      "shutdown_command": "echo 'vagrant'|sudo -S shutdown -P now",
      "guest_additions_path": "VBoxGuestAdditions_{{.Version}}.iso",
      "virtualbox_version_file": ".vbox_version",
      "vm_name": "packer-ubuntu-16.04-amd64",
      "vboxmanage": [
        [
          "modifyvm",
          "{{.Name}}",
          "--memory",
          "1024"
        ],
        [
          "modifyvm",
          "{{.Name}}",
          "--cpus",
          "1"
        ]
      ]
    },
    {
      "type": "vmware-iso",
      "boot_command": [
        "<enter><wait><f6><esc><bs><bs><bs><bs><bs><bs><bs><bs><bs><bs><bs><bs><bs><bs><bs><bs><bs>",
        "<bs><bs><bs><bs><bs><bs><bs><bs><bs><bs><bs><bs><bs><bs><bs><bs><bs><bs><bs><bs><bs><bs>",
        "<bs><bs><bs><bs><bs><bs><bs><bs><bs><bs><bs><bs><bs><bs><bs><bs><bs><bs><bs><bs><bs><bs>",
        "<bs><bs><bs><bs><bs><bs><bs><bs><bs><bs><bs><bs><bs><bs><bs><bs><bs><bs><bs><bs><bs><bs>",
        "/install/vmlinuz<wait>",
        " auto<wait>",
        " console-setup/ask_detect=false<wait>",
        " console-setup/layoutcode=us<wait>",
        " console-setup/modelcode=pc105<wait>",
        " debconf/frontend=noninteractive<wait>",
        " debian-installer=en_US<wait>",
        " fb=false<wait>",
        " initrd=/install/initrd.gz<wait>",
        " kbd-chooser/method=us<wait>",
        " keyboard-configuration/layout=USA<wait>",
        " keyboard-configuration/variant=USA<wait>",
        " locale=en_US<wait>",
        " netcfg/get_domain=vm<wait>",
        " netcfg/get_hostname=vagrant<wait>",
        " grub-installer/bootdev=/dev/sda<wait>",
        " noapic<wait>",
        " preseed/url=http://{{ .HTTPIP }}:{{ .HTTPPort }}/preseed.cfg",
        " -- <wait>",
        "<enter><wait>"
      ],
      "boot_wait": "10s",
      "disk_size": 81920,
      "guest_os_type": "ubuntu-64",
      "headless": true,
      "http_directory": "http",
      "iso_urls": [
        "iso/ubuntu-16.04.1-server-amd64.iso",
        "http://uberbrick:8888/userContent/ubuntu-16.-04.1-server-amd.iso",
        "http://releases.ubuntu.com/16.04/ubuntu-16.04.1-server-amd64.iso"
      ],
      "iso_checksum_type": "sha256",
      "iso_checksum": "29a8b9009509b39d542ecb229787cdf48f05e739a932289de9e9858d7c487c80",
      "output_directory": "packer-ubuntu-16.04-amd64-vmware",
      "shutdown_command": "echo 'vagrant'|sudo -S shutdown -P now",
      "ssh_password": "vagrant",
      "ssh_port": 22,
      "ssh_username": "vagrant",
      "ssh_wait_timeout": "10000s",
      "tools_upload_flavor": "linux",
      "vm_name": "packer-ubuntu-16.04-amd64",
      "vmx_data": {
        "cpuid.coresPerSocket": "1",
        "memsize": "1024",
        "numvcpus": "1"
      }
    }
  ],
  "post-processors": [
    {
      "output": "builds/{{.Provider}}-ubuntu1604.box",
      "type": "vagrant"
    }
  ]
}
